<?xml version="1.0" encoding="UTF-8"?>
<svg width="200" height="200" viewBox="0 0 200 200" xmlns="http://www.w3.org/2000/svg" >
  <title>Ludo de Homa Vivo</title>
  <script href="script.js" />
</svg>
